94675;188
95227;177
95514;214
97504;255
103718;169
104022;202
152652;75
153401;82
154155;81
154929;79
155770;73
156577;76
157357;78
158134;79
158897;80
159673;79
160471;77
161255;78
162043;78
162846;76
163744;68
164619;70
165447;74
166293;72
167214;66
168154;65
169140;62
170093;64
171045;64
171962;67
172904;65
173864;64
174861;61
175841;62
176862;60
177871;60
178814;65
179834;60
180778;65
181814;59
182759;65
183740;62
184625;69
185581;64
186525;65
187480;64
188456;62
189555;55
190635;56
191621;62
192608;62
193503;68
194424;66
195314;69
196161;72
197051;69
198738;70
199592;72
200398;76
201273;70
202158;69
203010;72
203915;67
204856;65
205791;65
206766;63
207776;60
208787;60
209691;68
211393;72
212270;112
214728;186
216230;84
216938;86
217648;86
218356;86
219054;88
219745;89
220425;90
221096;91
221780;89
222478;88
223184;87
223903;85
224605;87
225313;86
226067;81
226879;75
227677;77
228612;65
229639;59
230585;65
231528;65
232442;67
233254;75
234060;76
234839;78
235650;75
236434;78
237222;78
238092;70
238946;72
239797;72
240665;70
241500;73
242324;74
243150;74
243947;77
244719;79
245528;75
246394;71
247271;70
248136;71
249085;64
250077;61
251035;64
252086;58
253078;61
254034;64
255004;63
255872;70
256788;67
257776;62
258713;65
259696;62
260735;59
261711;62
262811;55
263879;57
265021;53
266162;53
267255;56
268386;54
269419;59
270531;55
271630;55
272723;56
273888;52
275004;55
276183;52
277262;56
278310;58
279409;55
280496;56
281493;61
282464;63
283475;60
284496;60
285476;62
286660;51
287828;52
288761;65
289836;57
291113;48
292352;49
293569;50
294720;53
295811;56
296935;54
298108;52
299235;54
300544;46
301818;48
303097;48
304383;47
305610;50
306826;50
308037;50
309154;55
310331;52
311460;54
312577;55
313754;52
314840;56
315993;53
317112;54
318207;56
319336;54
320426;56
321507;56
322598;56
323618;60
324582;63
325465;69
326383;66
327319;65
328178;71
329091;67
330037;65
330938;68
331800;71
332710;67
333564;72
334429;71
335236;76
336023;78
338607;72
340251;74
341089;73
341940;158
342789;144
343611;162
344505;68
345357;72
346190;73
347037;72
347857;119
348717;135
351271;167
352115;172
352525;150
356027;154
357645;215
361081;127
361906;131
362710;137
363510;139
364243;158
366384;237
366682;206
369011;255
370430;88
371126;88
372537;86
374673;85
375064;157
377144;218
379771;84
380510;83
381228;85
381971;82
382790;75
383576;78
384922;83
385665;82
386421;81
387167;82
388673;80
389403;84
390151;82
390876;84
391586;86
392290;87
392993;87
393702;86
394431;84
395140;86
395834;88
396537;236
397971;85
399354;89
400046;88
400732;89
402209;81
402933;84
403657;84
404413;81
404929;119
405425;123
408063;151
415110;161
415900;204
420390;151
421139;82
421911;79
422823;67
423190;167
425790;144
427553;150
428813;120
429398;105
430769;85
431555;78
433870;80
434606;185
437571;86
440159;75
440952;77
441780;107
443407;76
444160;81
444959;76
445710;167
447351;175
448897;219
449159;235
