[
  {
    "Participant": 12,
    "Trigger": "Immediately",
    "Trigger_date": "2016-06-15",
    "Trigger_time": "16:08:46",
    "Trigger_counter": 1,
    "Form": "Einleitung",
    "Form_start_date": "2016-06-15",
    "Form_start_time": "16:08:46",
    "Form_finish_date": "2016-06-15",
    "Form_finish_time": "16:10:10",
    "Form_upload_date": "2016-06-15",
    "Form_upload_time": "16:11:14",
    "Missing": "",
    "item_125": "",
    "Einleitung_Geo_latitude": 48.7816385,
    "Einleitung_Geo_longitude": 9.1766291,
    "Einleitung_Geo_altitude": 340.7280235812036,
    "Einleitung_Geo_accuracy": 24,
    "Einleitung_Foto": "1465999789646.jpg",
    "Danke": "",
    "Hotspot1_Geo_latitude": null,
    "Hotspot1_Geo_longitude": null,
    "Hotspot1_Geo_altitude": null,
    "Hotspot1_Geo_accuracy": null,
    "Hotspot1_Foto": "",
    "Hotspot1_Gefallen": null,
    "Hotspot1_Begruendung": "",
    "Hotspot2": null,
    "Hotspot2_Geo_latitude": null,
    "Hotspot2_Geo_longitude": null,
    "Hotspot2_Geo_altitude": null,
    "Hotspot2_Geo_accuracy": null,
    "Hotspot2_Foto": "",
    "Hotspot2_Gefallen": null,
    "Hotspot2_Begruendung": "",
    "item_411": "",
    "zufrieden": null,
    "gluecklich": null,
    "ungluecklich": null,
    "unzufrieden": null,
    "wach": null,
    "munter": null,
    "schlapp": null,
    "muede": null,
    "gelassen": null,
    "entspannt": null,
    "angespannt": null,
    "nervoes": null,
    "item_224": "",
    "item_332": "",
    "Zufall_Geo_latitude": "",
    "Zufall_Geo_longitude": "",
    "Zufall_Geo_altitude": "",
    "Zufall_Geo_accuracy": "",
    "Zufall_Foto": "",
    "item_258": "",
    "Weg_folgen": ""
  },
  {
    "Participant": 12,
    "Trigger": "Immediately",
    "Trigger_date": "2016-06-15",
    "Trigger_time": "16:08:46",
    "Trigger_counter": 1,
    "Form": "Stimmung",
    "Form_start_date": "2016-06-15",
    "Form_start_time": "16:10:12",
    "Form_finish_date": "2016-06-15",
    "Form_finish_time": "16:11:02",
    "Form_upload_date": "2016-06-15",
    "Form_upload_time": "16:11:14",
    "Missing": "",
    "item_125": "",
    "Einleitung_Geo_latitude": null,
    "Einleitung_Geo_longitude": null,
    "Einleitung_Geo_altitude": null,
    "Einleitung_Geo_accuracy": null,
    "Einleitung_Foto": "",
    "Danke": "",
    "Hotspot1_Geo_latitude": null,
    "Hotspot1_Geo_longitude": null,
    "Hotspot1_Geo_altitude": null,
    "Hotspot1_Geo_accuracy": null,
    "Hotspot1_Foto": "",
    "Hotspot1_Gefallen": null,
    "Hotspot1_Begruendung": "",
    "Hotspot2": null,
    "Hotspot2_Geo_latitude": null,
    "Hotspot2_Geo_longitude": null,
    "Hotspot2_Geo_altitude": null,
    "Hotspot2_Geo_accuracy": null,
    "Hotspot2_Foto": "",
    "Hotspot2_Gefallen": null,
    "Hotspot2_Begruendung": "",
    "item_411": "",
    "zufrieden": 4,
    "gluecklich": 4,
    "ungluecklich": 2,
    "unzufrieden": 2,
    "wach": 3,
    "munter": 3,
    "schlapp": 3,
    "muede": 4,
    "gelassen": 3,
    "entspannt": 3,
    "angespannt": 2,
    "nervoes": 2,
    "item_224": "",
    "item_332": "",
    "Zufall_Geo_latitude": "",
    "Zufall_Geo_longitude": "",
    "Zufall_Geo_altitude": "",
    "Zufall_Geo_accuracy": "",
    "Zufall_Foto": "",
    "item_258": "",
    "Weg_folgen": ""
  },
  {
    "Participant": 12,
    "Trigger": "Geofence was entered: Latitude=48.78147595|Longitude=9.17383075|Radius=100",
    "Trigger_date": "2016-06-15",
    "Trigger_time": "16:13:49",
    "Trigger_counter": 2,
    "Form": "Willkommen im Stadtgarten",
    "Form_start_date": "2016-06-15",
    "Form_start_time": "16:14:19",
    "Form_finish_date": "2016-06-15",
    "Form_finish_time": "16:14:43",
    "Form_upload_date": "2016-06-15",
    "Form_upload_time": "16:20:39",
    "Missing": "",
    "item_125": "",
    "Einleitung_Geo_latitude": null,
    "Einleitung_Geo_longitude": null,
    "Einleitung_Geo_altitude": null,
    "Einleitung_Geo_accuracy": null,
    "Einleitung_Foto": "",
    "Danke": "",
    "Hotspot1_Geo_latitude": null,
    "Hotspot1_Geo_longitude": null,
    "Hotspot1_Geo_altitude": null,
    "Hotspot1_Geo_accuracy": null,
    "Hotspot1_Foto": "",
    "Hotspot1_Gefallen": null,
    "Hotspot1_Begruendung": "",
    "Hotspot2": null,
    "Hotspot2_Geo_latitude": null,
    "Hotspot2_Geo_longitude": null,
    "Hotspot2_Geo_altitude": null,
    "Hotspot2_Geo_accuracy": null,
    "Hotspot2_Foto": "",
    "Hotspot2_Gefallen": null,
    "Hotspot2_Begruendung": "",
    "item_411": "",
    "zufrieden": null,
    "gluecklich": null,
    "ungluecklich": null,
    "unzufrieden": null,
    "wach": null,
    "munter": null,
    "schlapp": null,
    "muede": null,
    "gelassen": null,
    "entspannt": null,
    "angespannt": null,
    "nervoes": null,
    "item_224": "",
    "item_332": "",
    "Zufall_Geo_latitude": "",
    "Zufall_Geo_longitude": "",
    "Zufall_Geo_altitude": "",
    "Zufall_Geo_accuracy": "",
    "Zufall_Foto": "",
    "item_258": "",
    "Weg_folgen": ""
  },
  {
    "Participant": 12,
    "Trigger": "Button Pressed: ",
    "Trigger_date": "2016-06-15",
    "Trigger_time": "16:14:46",
    "Trigger_counter": 3,
    "Form": "Hotspot",
    "Form_start_date": "2016-06-15",
    "Form_start_time": "16:14:46",
    "Form_finish_date": "2016-06-15",
    "Form_finish_time": "16:20:37",
    "Form_upload_date": "2016-06-15",
    "Form_upload_time": "16:20:50",
    "Missing": "",
    "item_125": "",
    "Einleitung_Geo_latitude": null,
    "Einleitung_Geo_longitude": null,
    "Einleitung_Geo_altitude": null,
    "Einleitung_Geo_accuracy": null,
    "Einleitung_Foto": "",
    "Danke": "",
    "Hotspot1_Geo_latitude": 48.782123,
    "Hotspot1_Geo_longitude": 9.1745203,
    "Hotspot1_Geo_altitude": 297.8052468875858,
    "Hotspot1_Geo_accuracy": 16,
    "Hotspot1_Foto": "1466000122548.jpg",
    "Hotspot1_Gefallen": 8,
    "Hotspot1_Begruendung": "Entspannen und sitzen",
    "Hotspot2": 1,
    "Hotspot2_Geo_latitude": 48.7808573,
    "Hotspot2_Geo_longitude": 9.1738508,
    "Hotspot2_Geo_altitude": 299.43899927479504,
    "Hotspot2_Geo_accuracy": 12,
    "Hotspot2_Foto": "1466000358426.jpg",
    "Hotspot2_Gefallen": 7,
    "Hotspot2_Begruendung": "Schöne Blumen und Sitzgelegenheiten",
    "item_411": "",
    "zufrieden": null,
    "gluecklich": null,
    "ungluecklich": null,
    "unzufrieden": null,
    "wach": null,
    "munter": null,
    "schlapp": null,
    "muede": null,
    "gelassen": null,
    "entspannt": null,
    "angespannt": null,
    "nervoes": null,
    "item_224": "",
    "item_332": "",
    "Zufall_Geo_latitude": "",
    "Zufall_Geo_longitude": "",
    "Zufall_Geo_altitude": "",
    "Zufall_Geo_accuracy": "",
    "Zufall_Foto": "",
    "item_258": "",
    "Weg_folgen": ""
  },
  {
    "Participant": 12,
    "Trigger": "Button Pressed: ",
    "Trigger_date": "2016-06-15",
    "Trigger_time": "16:21:19",
    "Trigger_counter": 5,
    "Form": "Hotspot",
    "Form_start_date": "2016-06-15",
    "Form_start_time": "16:21:19",
    "Form_finish_date": "2016-06-15",
    "Form_finish_time": "16:22:31",
    "Form_upload_date": "2016-06-15",
    "Form_upload_time": "16:22:40",
    "Missing": "",
    "item_125": "",
    "Einleitung_Geo_latitude": null,
    "Einleitung_Geo_longitude": null,
    "Einleitung_Geo_altitude": null,
    "Einleitung_Geo_accuracy": null,
    "Einleitung_Foto": "",
    "Danke": "",
    "Hotspot1_Geo_latitude": 48.7809402,
    "Hotspot1_Geo_longitude": 9.1731454,
    "Hotspot1_Geo_altitude": 297.16297045854617,
    "Hotspot1_Geo_accuracy": 8,
    "Hotspot1_Foto": "1466000509359.jpg",
    "Hotspot1_Gefallen": 3,
    "Hotspot1_Begruendung": "Keine Schöne Aussicht und keine Sitzgelegenheiten",
    "Hotspot2": 2,
    "Hotspot2_Geo_latitude": null,
    "Hotspot2_Geo_longitude": null,
    "Hotspot2_Geo_altitude": null,
    "Hotspot2_Geo_accuracy": null,
    "Hotspot2_Foto": "",
    "Hotspot2_Gefallen": null,
    "Hotspot2_Begruendung": "",
    "item_411": "",
    "zufrieden": null,
    "gluecklich": null,
    "ungluecklich": null,
    "unzufrieden": null,
    "wach": null,
    "munter": null,
    "schlapp": null,
    "muede": null,
    "gelassen": null,
    "entspannt": null,
    "angespannt": null,
    "nervoes": null,
    "item_224": "",
    "item_332": "",
    "Zufall_Geo_latitude": "",
    "Zufall_Geo_longitude": "",
    "Zufall_Geo_altitude": "",
    "Zufall_Geo_accuracy": "",
    "Zufall_Foto": "",
    "item_258": "",
    "Weg_folgen": ""
  },
  {
    "Participant": 12,
    "Trigger": "Button Pressed: ",
    "Trigger_date": "2016-06-15",
    "Trigger_time": "16:22:46",
    "Trigger_counter": 6,
    "Form": "Hotspot",
    "Form_start_date": "2016-06-15",
    "Form_start_time": "16:22:46",
    "Form_finish_date": "2016-06-15",
    "Form_finish_time": "16:24:30",
    "Form_upload_date": "2016-06-15",
    "Form_upload_time": "16:24:40",
    "Missing": "",
    "item_125": "",
    "Einleitung_Geo_latitude": null,
    "Einleitung_Geo_longitude": null,
    "Einleitung_Geo_altitude": null,
    "Einleitung_Geo_accuracy": null,
    "Einleitung_Foto": "",
    "Danke": "",
    "Hotspot1_Geo_latitude": 48.781488,
    "Hotspot1_Geo_longitude": 9.1725134,
    "Hotspot1_Geo_altitude": 291.5549930822686,
    "Hotspot1_Geo_accuracy": 12,
    "Hotspot1_Foto": "1466000630629.jpg",
    "Hotspot1_Gefallen": 5,
    "Hotspot1_Begruendung": "Sitzgelegenheiten, aber nicht so Schöne Umgebung",
    "Hotspot2": 2,
    "Hotspot2_Geo_latitude": null,
    "Hotspot2_Geo_longitude": null,
    "Hotspot2_Geo_altitude": null,
    "Hotspot2_Geo_accuracy": null,
    "Hotspot2_Foto": "",
    "Hotspot2_Gefallen": null,
    "Hotspot2_Begruendung": "",
    "item_411": "",
    "zufrieden": null,
    "gluecklich": null,
    "ungluecklich": null,
    "unzufrieden": null,
    "wach": null,
    "munter": null,
    "schlapp": null,
    "muede": null,
    "gelassen": null,
    "entspannt": null,
    "angespannt": null,
    "nervoes": null,
    "item_224": "",
    "item_332": "",
    "Zufall_Geo_latitude": "",
    "Zufall_Geo_longitude": "",
    "Zufall_Geo_altitude": "",
    "Zufall_Geo_accuracy": "",
    "Zufall_Foto": "",
    "item_258": "",
    "Weg_folgen": ""
  },
  {
    "Participant": 12,
    "Trigger": "Geofence was left: Latitude=48.78147595|Longitude=9.17383075|Radius=100",
    "Trigger_date": "2016-06-15",
    "Trigger_time": "16:24:54",
    "Trigger_counter": 8,
    "Form": "Stimmung",
    "Form_start_date": "2016-06-15",
    "Form_start_time": "16:24:59",
    "Form_finish_date": "2016-06-15",
    "Form_finish_time": "16:25:27",
    "Form_upload_date": "2016-06-15",
    "Form_upload_time": "16:25:29",
    "Missing": "",
    "item_125": "",
    "Einleitung_Geo_latitude": null,
    "Einleitung_Geo_longitude": null,
    "Einleitung_Geo_altitude": null,
    "Einleitung_Geo_accuracy": null,
    "Einleitung_Foto": "",
    "Danke": "",
    "Hotspot1_Geo_latitude": null,
    "Hotspot1_Geo_longitude": null,
    "Hotspot1_Geo_altitude": null,
    "Hotspot1_Geo_accuracy": null,
    "Hotspot1_Foto": "",
    "Hotspot1_Gefallen": null,
    "Hotspot1_Begruendung": "",
    "Hotspot2": null,
    "Hotspot2_Geo_latitude": null,
    "Hotspot2_Geo_longitude": null,
    "Hotspot2_Geo_altitude": null,
    "Hotspot2_Geo_accuracy": null,
    "Hotspot2_Foto": "",
    "Hotspot2_Gefallen": null,
    "Hotspot2_Begruendung": "",
    "item_411": "",
    "zufrieden": 4,
    "gluecklich": 4,
    "ungluecklich": 2,
    "unzufrieden": 2,
    "wach": 3,
    "munter": 4,
    "schlapp": 2,
    "muede": 3,
    "gelassen": 3,
    "entspannt": 3,
    "angespannt": 2,
    "nervoes": 2,
    "item_224": "",
    "item_332": "",
    "Zufall_Geo_latitude": "",
    "Zufall_Geo_longitude": "",
    "Zufall_Geo_altitude": "",
    "Zufall_Geo_accuracy": "",
    "Zufall_Foto": "",
    "item_258": "",
    "Weg_folgen": ""
  },
  {
    "Participant": 12,
    "Trigger": "Geofence was entered: Latitude=48.78147595|Longitude=9.17383075|Radius=100",
    "Trigger_date": "2016-06-15",
    "Trigger_time": "16:31:50",
    "Trigger_counter": 9,
    "Form": "Missing",
    "Form_start_date": "2016-06-15",
    "Form_start_time": "16:32:01",
    "Form_finish_date": "2016-06-15",
    "Form_finish_time": "16:32:01",
    "Form_upload_date": "2016-06-15",
    "Form_upload_time": "16:34:59",
    "Missing": "Dismissed",
    "item_125": "",
    "Einleitung_Geo_latitude": null,
    "Einleitung_Geo_longitude": null,
    "Einleitung_Geo_altitude": null,
    "Einleitung_Geo_accuracy": null,
    "Einleitung_Foto": "",
    "Danke": "",
    "Hotspot1_Geo_latitude": null,
    "Hotspot1_Geo_longitude": null,
    "Hotspot1_Geo_altitude": null,
    "Hotspot1_Geo_accuracy": null,
    "Hotspot1_Foto": "",
    "Hotspot1_Gefallen": null,
    "Hotspot1_Begruendung": "",
    "Hotspot2": null,
    "Hotspot2_Geo_latitude": null,
    "Hotspot2_Geo_longitude": null,
    "Hotspot2_Geo_altitude": null,
    "Hotspot2_Geo_accuracy": null,
    "Hotspot2_Foto": "",
    "Hotspot2_Gefallen": null,
    "Hotspot2_Begruendung": "",
    "item_411": "",
    "zufrieden": null,
    "gluecklich": null,
    "ungluecklich": null,
    "unzufrieden": null,
    "wach": null,
    "munter": null,
    "schlapp": null,
    "muede": null,
    "gelassen": null,
    "entspannt": null,
    "angespannt": null,
    "nervoes": null,
    "item_224": "",
    "item_332": "",
    "Zufall_Geo_latitude": "",
    "Zufall_Geo_longitude": "",
    "Zufall_Geo_altitude": "",
    "Zufall_Geo_accuracy": "",
    "Zufall_Foto": "",
    "item_258": "",
    "Weg_folgen": ""
  },
  {
    "Participant": 12,
    "Trigger": "Geofence was left: Latitude=48.78147595|Longitude=9.17383075|Radius=100",
    "Trigger_date": "2016-06-15",
    "Trigger_time": "16:34:22",
    "Trigger_counter": 13,
    "Form": "Stimmung",
    "Form_start_date": "2016-06-15",
    "Form_start_time": "16:34:28",
    "Form_finish_date": "2016-06-15",
    "Form_finish_time": "16:34:56",
    "Form_upload_date": "2016-06-15",
    "Form_upload_time": "16:34:59",
    "Missing": "",
    "item_125": "",
    "Einleitung_Geo_latitude": null,
    "Einleitung_Geo_longitude": null,
    "Einleitung_Geo_altitude": null,
    "Einleitung_Geo_accuracy": null,
    "Einleitung_Foto": "",
    "Danke": "",
    "Hotspot1_Geo_latitude": null,
    "Hotspot1_Geo_longitude": null,
    "Hotspot1_Geo_altitude": null,
    "Hotspot1_Geo_accuracy": null,
    "Hotspot1_Foto": "",
    "Hotspot1_Gefallen": null,
    "Hotspot1_Begruendung": "",
    "Hotspot2": null,
    "Hotspot2_Geo_latitude": null,
    "Hotspot2_Geo_longitude": null,
    "Hotspot2_Geo_altitude": null,
    "Hotspot2_Geo_accuracy": null,
    "Hotspot2_Foto": "",
    "Hotspot2_Gefallen": null,
    "Hotspot2_Begruendung": "",
    "item_411": "",
    "zufrieden": 3,
    "gluecklich": 4,
    "ungluecklich": 2,
    "unzufrieden": 2,
    "wach": 4,
    "munter": 3,
    "schlapp": 4,
    "muede": 3,
    "gelassen": 3,
    "entspannt": 2,
    "angespannt": 3,
    "nervoes": 2,
    "item_224": "",
    "item_332": "",
    "Zufall_Geo_latitude": "",
    "Zufall_Geo_longitude": "",
    "Zufall_Geo_altitude": "",
    "Zufall_Geo_accuracy": "",
    "Zufall_Foto": "",
    "item_258": "",
    "Weg_folgen": ""
  }
]
