[
  {
    "Participant": 18,
    "Trigger": "Immediately",
    "Trigger_date": "2016-08-17",
    "Trigger_time": "12:47:22",
    "Trigger_counter": 1,
    "Form": "Einleitung",
    "Form_start_date": "2016-08-17",
    "Form_start_time": "12:47:23",
    "Form_finish_date": "2016-08-17",
    "Form_finish_time": "12:47:55",
    "Form_upload_date": "2016-08-17",
    "Form_upload_time": "12:48:54",
    "Missing": "",
    "item_125": "",
    "Einleitung_Geo_latitude": 48.7816631,
    "Einleitung_Geo_longitude": 9.176877,
    "Einleitung_Geo_altitude": 289.7014117229236,
    "Einleitung_Geo_accuracy": 16,
    "Einleitung_Foto": "1471430872833.jpg",
    "Hotspot1_Geo_latitude": null,
    "Hotspot1_Geo_longitude": null,
    "Hotspot1_Geo_altitude": null,
    "Hotspot1_Geo_accuracy": null,
    "Hotspot1_Foto": "",
    "Hotspot1_Gefallen": null,
    "Hotspot1_Begruendung": "",
    "Hotspot2": null,
    "Hotspot2_Geo_latitude": null,
    "Hotspot2_Geo_longitude": null,
    "Hotspot2_Geo_altitude": null,
    "Hotspot2_Geo_accuracy": null,
    "Hotspot2_Foto": "",
    "Hotspot2_Gefallen": null,
    "Hotspot2_Begruendung": "",
    "item_411": "",
    "zufrieden": null,
    "gluecklich": null,
    "ungluecklich": null,
    "unzufrieden": null,
    "wach": null,
    "munter": null,
    "schlapp": null,
    "muede": null,
    "gelassen": null,
    "entspannt": null,
    "angespannt": null,
    "nervoes": null,
    "item_224": "",
    "item_332": "",
    "Zufall_Geo_latitude": "",
    "Zufall_Geo_longitude": "",
    "Zufall_Geo_altitude": "",
    "Zufall_Geo_accuracy": "",
    "Zufall_Foto": "",
    "item_258": "",
    "Weg_folgen": ""
  },
  {
    "Participant": 18,
    "Trigger": "Immediately",
    "Trigger_date": "2016-08-17",
    "Trigger_time": "12:47:22",
    "Trigger_counter": 1,
    "Form": "Stimmung",
    "Form_start_date": "2016-08-17",
    "Form_start_time": "12:47:58",
    "Form_finish_date": "2016-08-17",
    "Form_finish_time": "12:48:16",
    "Form_upload_date": "2016-08-17",
    "Form_upload_time": "12:48:54",
    "Missing": "",
    "item_125": "",
    "Einleitung_Geo_latitude": null,
    "Einleitung_Geo_longitude": null,
    "Einleitung_Geo_altitude": null,
    "Einleitung_Geo_accuracy": null,
    "Einleitung_Foto": "",
    "Hotspot1_Geo_latitude": null,
    "Hotspot1_Geo_longitude": null,
    "Hotspot1_Geo_altitude": null,
    "Hotspot1_Geo_accuracy": null,
    "Hotspot1_Foto": "",
    "Hotspot1_Gefallen": null,
    "Hotspot1_Begruendung": "",
    "Hotspot2": null,
    "Hotspot2_Geo_latitude": null,
    "Hotspot2_Geo_longitude": null,
    "Hotspot2_Geo_altitude": null,
    "Hotspot2_Geo_accuracy": null,
    "Hotspot2_Foto": "",
    "Hotspot2_Gefallen": null,
    "Hotspot2_Begruendung": "",
    "item_411": "",
    "zufrieden": 4,
    "gluecklich": 4,
    "ungluecklich": 2,
    "unzufrieden": 2,
    "wach": 3,
    "munter": 3,
    "schlapp": 2,
    "muede": 2,
    "gelassen": 4,
    "entspannt": 4,
    "angespannt": 1,
    "nervoes": 1,
    "item_224": "",
    "item_332": "",
    "Zufall_Geo_latitude": "",
    "Zufall_Geo_longitude": "",
    "Zufall_Geo_altitude": "",
    "Zufall_Geo_accuracy": "",
    "Zufall_Foto": "",
    "item_258": "",
    "Weg_folgen": ""
  },
  {
    "Participant": 18,
    "Trigger": "Immediately",
    "Trigger_date": "2016-08-17",
    "Trigger_time": "12:47:22",
    "Trigger_counter": 1,
    "Form": "Weiter Weg folgen",
    "Form_start_date": "2016-08-17",
    "Form_start_time": "12:48:17",
    "Form_finish_date": "2016-08-17",
    "Form_finish_time": "12:48:19",
    "Form_upload_date": "2016-08-17",
    "Form_upload_time": "12:48:55",
    "Missing": "",
    "item_125": "",
    "Einleitung_Geo_latitude": null,
    "Einleitung_Geo_longitude": null,
    "Einleitung_Geo_altitude": null,
    "Einleitung_Geo_accuracy": null,
    "Einleitung_Foto": "",
    "Hotspot1_Geo_latitude": null,
    "Hotspot1_Geo_longitude": null,
    "Hotspot1_Geo_altitude": null,
    "Hotspot1_Geo_accuracy": null,
    "Hotspot1_Foto": "",
    "Hotspot1_Gefallen": null,
    "Hotspot1_Begruendung": "",
    "Hotspot2": null,
    "Hotspot2_Geo_latitude": null,
    "Hotspot2_Geo_longitude": null,
    "Hotspot2_Geo_altitude": null,
    "Hotspot2_Geo_accuracy": null,
    "Hotspot2_Foto": "",
    "Hotspot2_Gefallen": null,
    "Hotspot2_Begruendung": "",
    "item_411": "",
    "zufrieden": null,
    "gluecklich": null,
    "ungluecklich": null,
    "unzufrieden": null,
    "wach": null,
    "munter": null,
    "schlapp": null,
    "muede": null,
    "gelassen": null,
    "entspannt": null,
    "angespannt": null,
    "nervoes": null,
    "item_224": "",
    "item_332": "",
    "Zufall_Geo_latitude": "",
    "Zufall_Geo_longitude": "",
    "Zufall_Geo_altitude": "",
    "Zufall_Geo_accuracy": "",
    "Zufall_Foto": "",
    "item_258": "",
    "Weg_folgen": ""
  },
  {
    "Participant": 18,
    "Trigger": "Geofence was entered: Latitude=48.78147595|Longitude=9.17383075|Radius=100",
    "Trigger_date": "2016-08-17",
    "Trigger_time": "12:51:29",
    "Trigger_counter": 2,
    "Form": "Willkommen im Stadtgarten",
    "Form_start_date": "2016-08-17",
    "Form_start_time": "12:51:34",
    "Form_finish_date": "2016-08-17",
    "Form_finish_time": "12:51:45",
    "Form_upload_date": "2016-08-17",
    "Form_upload_time": "12:56:07",
    "Missing": "",
    "item_125": "",
    "Einleitung_Geo_latitude": null,
    "Einleitung_Geo_longitude": null,
    "Einleitung_Geo_altitude": null,
    "Einleitung_Geo_accuracy": null,
    "Einleitung_Foto": "",
    "Hotspot1_Geo_latitude": null,
    "Hotspot1_Geo_longitude": null,
    "Hotspot1_Geo_altitude": null,
    "Hotspot1_Geo_accuracy": null,
    "Hotspot1_Foto": "",
    "Hotspot1_Gefallen": null,
    "Hotspot1_Begruendung": "",
    "Hotspot2": null,
    "Hotspot2_Geo_latitude": null,
    "Hotspot2_Geo_longitude": null,
    "Hotspot2_Geo_altitude": null,
    "Hotspot2_Geo_accuracy": null,
    "Hotspot2_Foto": "",
    "Hotspot2_Gefallen": null,
    "Hotspot2_Begruendung": "",
    "item_411": "",
    "zufrieden": null,
    "gluecklich": null,
    "ungluecklich": null,
    "unzufrieden": null,
    "wach": null,
    "munter": null,
    "schlapp": null,
    "muede": null,
    "gelassen": null,
    "entspannt": null,
    "angespannt": null,
    "nervoes": null,
    "item_224": "",
    "item_332": "",
    "Zufall_Geo_latitude": "",
    "Zufall_Geo_longitude": "",
    "Zufall_Geo_altitude": "",
    "Zufall_Geo_accuracy": "",
    "Zufall_Foto": "",
    "item_258": "",
    "Weg_folgen": ""
  },
  {
    "Participant": 18,
    "Trigger": "Button Pressed: ",
    "Trigger_date": "2016-08-17",
    "Trigger_time": "12:51:58",
    "Trigger_counter": 3,
    "Form": "Hotspot",
    "Form_start_date": "2016-08-17",
    "Form_start_time": "12:51:58",
    "Form_finish_date": "2016-08-17",
    "Form_finish_time": "12:56:05",
    "Form_upload_date": "2016-08-17",
    "Form_upload_time": "12:56:18",
    "Missing": "",
    "item_125": "",
    "Einleitung_Geo_latitude": null,
    "Einleitung_Geo_longitude": null,
    "Einleitung_Geo_altitude": null,
    "Einleitung_Geo_accuracy": null,
    "Einleitung_Foto": "",
    "Hotspot1_Geo_latitude": 48.7820001,
    "Hotspot1_Geo_longitude": 9.1743807,
    "Hotspot1_Geo_altitude": 323.92072576094654,
    "Hotspot1_Geo_accuracy": 8,
    "Hotspot1_Foto": "1471431165761.jpg",
    "Hotspot1_Gefallen": 0,
    "Hotspot1_Begruendung": "Müllcontainer",
    "Hotspot2": 1,
    "Hotspot2_Geo_latitude": 48.780969,
    "Hotspot2_Geo_longitude": 9.1739086,
    "Hotspot2_Geo_altitude": 288.75215220103365,
    "Hotspot2_Geo_accuracy": 12,
    "Hotspot2_Foto": "1471431317406.jpg",
    "Hotspot2_Gefallen": 6,
    "Hotspot2_Begruendung": "Grüne Liegefläche und Statuen",
    "item_411": "",
    "zufrieden": null,
    "gluecklich": null,
    "ungluecklich": null,
    "unzufrieden": null,
    "wach": null,
    "munter": null,
    "schlapp": null,
    "muede": null,
    "gelassen": null,
    "entspannt": null,
    "angespannt": null,
    "nervoes": null,
    "item_224": "",
    "item_332": "",
    "Zufall_Geo_latitude": "",
    "Zufall_Geo_longitude": "",
    "Zufall_Geo_altitude": "",
    "Zufall_Geo_accuracy": "",
    "Zufall_Foto": "",
    "item_258": "",
    "Weg_folgen": ""
  },
  {
    "Participant": 18,
    "Trigger": "Button Pressed: ",
    "Trigger_date": "2016-08-17",
    "Trigger_time": "12:56:09",
    "Trigger_counter": 4,
    "Form": "Hotspot",
    "Form_start_date": "2016-08-17",
    "Form_start_time": "12:56:09",
    "Form_finish_date": "2016-08-17",
    "Form_finish_time": "12:57:31",
    "Form_upload_date": "2016-08-17",
    "Form_upload_time": "13:14:02",
    "Missing": "",
    "item_125": "",
    "Einleitung_Geo_latitude": null,
    "Einleitung_Geo_longitude": null,
    "Einleitung_Geo_altitude": null,
    "Einleitung_Geo_accuracy": null,
    "Einleitung_Foto": "",
    "Hotspot1_Geo_latitude": 48.7808856,
    "Hotspot1_Geo_longitude": 9.1737922,
    "Hotspot1_Geo_altitude": 302.55694112424317,
    "Hotspot1_Geo_accuracy": 8,
    "Hotspot1_Foto": "1471431411374.jpg",
    "Hotspot1_Gefallen": 8,
    "Hotspot1_Begruendung": "Weg durch Blumenbeet, dicht und bunt bepflanzt",
    "Hotspot2": 2,
    "Hotspot2_Geo_latitude": null,
    "Hotspot2_Geo_longitude": null,
    "Hotspot2_Geo_altitude": null,
    "Hotspot2_Geo_accuracy": null,
    "Hotspot2_Foto": "",
    "Hotspot2_Gefallen": null,
    "Hotspot2_Begruendung": "",
    "item_411": "",
    "zufrieden": null,
    "gluecklich": null,
    "ungluecklich": null,
    "unzufrieden": null,
    "wach": null,
    "munter": null,
    "schlapp": null,
    "muede": null,
    "gelassen": null,
    "entspannt": null,
    "angespannt": null,
    "nervoes": null,
    "item_224": "",
    "item_332": "",
    "Zufall_Geo_latitude": "",
    "Zufall_Geo_longitude": "",
    "Zufall_Geo_altitude": "",
    "Zufall_Geo_accuracy": "",
    "Zufall_Foto": "",
    "item_258": "",
    "Weg_folgen": ""
  },
  {
    "Participant": 18,
    "Trigger": "Button Pressed: ",
    "Trigger_date": "2016-08-17",
    "Trigger_time": "12:58:47",
    "Trigger_counter": 5,
    "Form": "Hotspot",
    "Form_start_date": "2016-08-17",
    "Form_start_time": "12:58:47",
    "Form_finish_date": "2016-08-17",
    "Form_finish_time": "13:00:01",
    "Form_upload_date": "2016-08-17",
    "Form_upload_time": "13:18:08",
    "Missing": "",
    "item_125": "",
    "Einleitung_Geo_latitude": null,
    "Einleitung_Geo_longitude": null,
    "Einleitung_Geo_altitude": null,
    "Einleitung_Geo_accuracy": null,
    "Einleitung_Foto": "",
    "Hotspot1_Geo_latitude": 48.781592,
    "Hotspot1_Geo_longitude": 9.172785,
    "Hotspot1_Geo_altitude": 297.59153571219053,
    "Hotspot1_Geo_accuracy": 8,
    "Hotspot1_Foto": "1471431559817.jpg",
    "Hotspot1_Gefallen": 0,
    "Hotspot1_Begruendung": "Kahle Fläche, Beton, Graffiti",
    "Hotspot2": 2,
    "Hotspot2_Geo_latitude": null,
    "Hotspot2_Geo_longitude": null,
    "Hotspot2_Geo_altitude": null,
    "Hotspot2_Geo_accuracy": null,
    "Hotspot2_Foto": "",
    "Hotspot2_Gefallen": null,
    "Hotspot2_Begruendung": "",
    "item_411": "",
    "zufrieden": null,
    "gluecklich": null,
    "ungluecklich": null,
    "unzufrieden": null,
    "wach": null,
    "munter": null,
    "schlapp": null,
    "muede": null,
    "gelassen": null,
    "entspannt": null,
    "angespannt": null,
    "nervoes": null,
    "item_224": "",
    "item_332": "",
    "Zufall_Geo_latitude": "",
    "Zufall_Geo_longitude": "",
    "Zufall_Geo_altitude": "",
    "Zufall_Geo_accuracy": "",
    "Zufall_Foto": "",
    "item_258": "",
    "Weg_folgen": ""
  },
  {
    "Participant": 18,
    "Trigger": "Geofence was left: Latitude=48.78147595|Longitude=9.17383075|Radius=100",
    "Trigger_date": "2016-08-17",
    "Trigger_time": "13:02:14",
    "Trigger_counter": 7,
    "Form": "Stimmung",
    "Form_start_date": "2016-08-17",
    "Form_start_time": "13:02:19",
    "Form_finish_date": "2016-08-17",
    "Form_finish_time": "13:02:48",
    "Form_upload_date": "2016-08-17",
    "Form_upload_time": "13:18:09",
    "Missing": "",
    "item_125": "",
    "Einleitung_Geo_latitude": null,
    "Einleitung_Geo_longitude": null,
    "Einleitung_Geo_altitude": null,
    "Einleitung_Geo_accuracy": null,
    "Einleitung_Foto": "",
    "Hotspot1_Geo_latitude": null,
    "Hotspot1_Geo_longitude": null,
    "Hotspot1_Geo_altitude": null,
    "Hotspot1_Geo_accuracy": null,
    "Hotspot1_Foto": "",
    "Hotspot1_Gefallen": null,
    "Hotspot1_Begruendung": "",
    "Hotspot2": null,
    "Hotspot2_Geo_latitude": null,
    "Hotspot2_Geo_longitude": null,
    "Hotspot2_Geo_altitude": null,
    "Hotspot2_Geo_accuracy": null,
    "Hotspot2_Foto": "",
    "Hotspot2_Gefallen": null,
    "Hotspot2_Begruendung": "",
    "item_411": "",
    "zufrieden": 3,
    "gluecklich": 3,
    "ungluecklich": 2,
    "unzufrieden": 2,
    "wach": 3,
    "munter": 3,
    "schlapp": 2,
    "muede": 2,
    "gelassen": 4,
    "entspannt": 5,
    "angespannt": 1,
    "nervoes": 1,
    "item_224": "",
    "item_332": "",
    "Zufall_Geo_latitude": "",
    "Zufall_Geo_longitude": "",
    "Zufall_Geo_altitude": "",
    "Zufall_Geo_accuracy": "",
    "Zufall_Foto": "",
    "item_258": "",
    "Weg_folgen": ""
  },
  {
    "Participant": 18,
    "Trigger": "Geofence was left: Latitude=48.78147595|Longitude=9.17383075|Radius=100",
    "Trigger_date": "2016-08-17",
    "Trigger_time": "13:02:14",
    "Trigger_counter": 7,
    "Form": "Weiter Weg folgen",
    "Form_start_date": "2016-08-17",
    "Form_start_time": "13:02:49",
    "Form_finish_date": "2016-08-17",
    "Form_finish_time": "13:02:50",
    "Form_upload_date": "2016-08-17",
    "Form_upload_time": "13:18:09",
    "Missing": "",
    "item_125": "",
    "Einleitung_Geo_latitude": null,
    "Einleitung_Geo_longitude": null,
    "Einleitung_Geo_altitude": null,
    "Einleitung_Geo_accuracy": null,
    "Einleitung_Foto": "",
    "Hotspot1_Geo_latitude": null,
    "Hotspot1_Geo_longitude": null,
    "Hotspot1_Geo_altitude": null,
    "Hotspot1_Geo_accuracy": null,
    "Hotspot1_Foto": "",
    "Hotspot1_Gefallen": null,
    "Hotspot1_Begruendung": "",
    "Hotspot2": null,
    "Hotspot2_Geo_latitude": null,
    "Hotspot2_Geo_longitude": null,
    "Hotspot2_Geo_altitude": null,
    "Hotspot2_Geo_accuracy": null,
    "Hotspot2_Foto": "",
    "Hotspot2_Gefallen": null,
    "Hotspot2_Begruendung": "",
    "item_411": "",
    "zufrieden": null,
    "gluecklich": null,
    "ungluecklich": null,
    "unzufrieden": null,
    "wach": null,
    "munter": null,
    "schlapp": null,
    "muede": null,
    "gelassen": null,
    "entspannt": null,
    "angespannt": null,
    "nervoes": null,
    "item_224": "",
    "item_332": "",
    "Zufall_Geo_latitude": "",
    "Zufall_Geo_longitude": "",
    "Zufall_Geo_altitude": "",
    "Zufall_Geo_accuracy": "",
    "Zufall_Foto": "",
    "item_258": "",
    "Weg_folgen": ""
  },
  {
    "Participant": 18,
    "Trigger": "Geofence was entered: Latitude=48.78147595|Longitude=9.17383075|Radius=100",
    "Trigger_date": "2016-08-17",
    "Trigger_time": "13:07:54",
    "Trigger_counter": 8,
    "Form": "Stadtgarten 2. Eintritt",
    "Form_start_date": "2016-08-17",
    "Form_start_time": "13:07:58",
    "Form_finish_date": "2016-08-17",
    "Form_finish_time": "13:08:04",
    "Form_upload_date": "2016-08-17",
    "Form_upload_time": "13:18:10",
    "Missing": "",
    "item_125": "",
    "Einleitung_Geo_latitude": null,
    "Einleitung_Geo_longitude": null,
    "Einleitung_Geo_altitude": null,
    "Einleitung_Geo_accuracy": null,
    "Einleitung_Foto": "",
    "Hotspot1_Geo_latitude": null,
    "Hotspot1_Geo_longitude": null,
    "Hotspot1_Geo_altitude": null,
    "Hotspot1_Geo_accuracy": null,
    "Hotspot1_Foto": "",
    "Hotspot1_Gefallen": null,
    "Hotspot1_Begruendung": "",
    "Hotspot2": null,
    "Hotspot2_Geo_latitude": null,
    "Hotspot2_Geo_longitude": null,
    "Hotspot2_Geo_altitude": null,
    "Hotspot2_Geo_accuracy": null,
    "Hotspot2_Foto": "",
    "Hotspot2_Gefallen": null,
    "Hotspot2_Begruendung": "",
    "item_411": "",
    "zufrieden": null,
    "gluecklich": null,
    "ungluecklich": null,
    "unzufrieden": null,
    "wach": null,
    "munter": null,
    "schlapp": null,
    "muede": null,
    "gelassen": null,
    "entspannt": null,
    "angespannt": null,
    "nervoes": null,
    "item_224": "",
    "item_332": "",
    "Zufall_Geo_latitude": "",
    "Zufall_Geo_longitude": "",
    "Zufall_Geo_altitude": "",
    "Zufall_Geo_accuracy": "",
    "Zufall_Foto": "",
    "item_258": "",
    "Weg_folgen": ""
  },
  {
    "Participant": 18,
    "Trigger": "Geofence was left: Latitude=48.78147595|Longitude=9.17383075|Radius=100",
    "Trigger_date": "2016-08-17",
    "Trigger_time": "13:10:55",
    "Trigger_counter": 12,
    "Form": "Stimmung",
    "Form_start_date": "2016-08-17",
    "Form_start_time": "13:11:00",
    "Form_finish_date": "2016-08-17",
    "Form_finish_time": "13:11:43",
    "Form_upload_date": "2016-08-17",
    "Form_upload_time": "13:18:10",
    "Missing": "",
    "item_125": "",
    "Einleitung_Geo_latitude": null,
    "Einleitung_Geo_longitude": null,
    "Einleitung_Geo_altitude": null,
    "Einleitung_Geo_accuracy": null,
    "Einleitung_Foto": "",
    "Hotspot1_Geo_latitude": null,
    "Hotspot1_Geo_longitude": null,
    "Hotspot1_Geo_altitude": null,
    "Hotspot1_Geo_accuracy": null,
    "Hotspot1_Foto": "",
    "Hotspot1_Gefallen": null,
    "Hotspot1_Begruendung": "",
    "Hotspot2": null,
    "Hotspot2_Geo_latitude": null,
    "Hotspot2_Geo_longitude": null,
    "Hotspot2_Geo_altitude": null,
    "Hotspot2_Geo_accuracy": null,
    "Hotspot2_Foto": "",
    "Hotspot2_Gefallen": null,
    "Hotspot2_Begruendung": "",
    "item_411": "",
    "zufrieden": 4,
    "gluecklich": 3,
    "ungluecklich": 1,
    "unzufrieden": 2,
    "wach": 3,
    "munter": 2,
    "schlapp": 3,
    "muede": 3,
    "gelassen": 4,
    "entspannt": 3,
    "angespannt": 2,
    "nervoes": 1,
    "item_224": "",
    "item_332": "",
    "Zufall_Geo_latitude": "",
    "Zufall_Geo_longitude": "",
    "Zufall_Geo_altitude": "",
    "Zufall_Geo_accuracy": "",
    "Zufall_Foto": "",
    "item_258": "",
    "Weg_folgen": ""
  },
  {
    "Participant": 18,
    "Trigger": "Geofence was left: Latitude=48.78147595|Longitude=9.17383075|Radius=100",
    "Trigger_date": "2016-08-17",
    "Trigger_time": "13:10:55",
    "Trigger_counter": 12,
    "Form": "Weiter Weg folgen",
    "Form_start_date": "2016-08-17",
    "Form_start_time": "13:11:43",
    "Form_finish_date": "2016-08-17",
    "Form_finish_time": "13:11:44",
    "Form_upload_date": "2016-08-17",
    "Form_upload_time": "13:18:11",
    "Missing": "",
    "item_125": "",
    "Einleitung_Geo_latitude": null,
    "Einleitung_Geo_longitude": null,
    "Einleitung_Geo_altitude": null,
    "Einleitung_Geo_accuracy": null,
    "Einleitung_Foto": "",
    "Hotspot1_Geo_latitude": null,
    "Hotspot1_Geo_longitude": null,
    "Hotspot1_Geo_altitude": null,
    "Hotspot1_Geo_accuracy": null,
    "Hotspot1_Foto": "",
    "Hotspot1_Gefallen": null,
    "Hotspot1_Begruendung": "",
    "Hotspot2": null,
    "Hotspot2_Geo_latitude": null,
    "Hotspot2_Geo_longitude": null,
    "Hotspot2_Geo_altitude": null,
    "Hotspot2_Geo_accuracy": null,
    "Hotspot2_Foto": "",
    "Hotspot2_Gefallen": null,
    "Hotspot2_Begruendung": "",
    "item_411": "",
    "zufrieden": null,
    "gluecklich": null,
    "ungluecklich": null,
    "unzufrieden": null,
    "wach": null,
    "munter": null,
    "schlapp": null,
    "muede": null,
    "gelassen": null,
    "entspannt": null,
    "angespannt": null,
    "nervoes": null,
    "item_224": "",
    "item_332": "",
    "Zufall_Geo_latitude": "",
    "Zufall_Geo_longitude": "",
    "Zufall_Geo_altitude": "",
    "Zufall_Geo_accuracy": "",
    "Zufall_Foto": "",
    "item_258": "",
    "Weg_folgen": ""
  }
]