{
  "Document": {
    "name": "Stadtgarten Hotspots_Proband16_20160719T144809+0200.kmz",
    "Style": {
      "@id": "trackline",
      "IconStyle": {
        "scale": "1.1",
        "heading": "0",
        "Icon": {
          "href": "http://maps.google.com/mapfiles/kml/pushpin/ylw-pushpin.png",
          "refreshInterval": "0",
          "viewRefreshTime": "0",
          "viewBoundScale": "0"
        },
        "hotSpot": {
          "@x": "20",
          "@y": "2",
          "@xunits": "pixels",
          "@yunits": "pixels"
        }
      },
      "LineStyle": {
        "color": "ff0000ff",
        "width": "4"
      }
    },
    "Placemark": {
      "name": "Stadtgarten Hotspots_Proband16_20160719T144809+0200",
      "open": "1",
      "styleUrl": "#trackline",
      "Track": {
        "when": [
          "2016-06-24T13:08:34.6+02:00",
          "2016-06-24T13:10:19.6+02:00",
          "2016-06-24T13:10:45.6+02:00",
          "2016-06-24T13:10:52.6+02:00",
          "2016-06-24T13:11:06.6+02:00",
          "2016-06-24T13:11:18.6+02:00",
          "2016-06-24T13:11:48.6+02:00",
          "2016-06-24T13:12:10.6+02:00",
          "2016-06-24T13:12:21.6+02:00",
          "2016-06-24T13:12:55.6+02:00",
          "2016-06-24T13:13:40.6+02:00",
          "2016-06-24T13:14:10.6+02:00",
          "2016-06-24T13:14:46.6+02:00",
          "2016-06-24T13:15:05.6+02:00",
          "2016-06-24T13:16:10.6+02:00",
          "2016-06-24T13:18:00.6+02:00",
          "2016-06-24T13:18:49.6+02:00",
          "2016-06-24T13:19:05.6+02:00",
          "2016-06-24T13:19:21.6+02:00",
          "2016-06-24T13:19:35.6+02:00",
          "2016-06-24T13:19:53.6+02:00",
          "2016-06-24T13:20:11.6+02:00",
          "2016-06-24T13:28:53.6+02:00",
          "2016-06-24T13:29:51.6+02:00",
          "2016-06-24T13:29:51.6+02:00",
          "2016-06-24T13:29:58.6+02:00",
          "2016-06-24T13:30:07.6+02:00",
          "2016-06-24T13:30:28.6+02:00",
          "2016-06-24T13:30:45.6+02:00",
          "2016-06-24T13:31:07.6+02:00",
          "2016-06-24T13:31:27.6+02:00",
          "2016-06-24T13:31:51.6+02:00",
          "2016-06-24T13:32:04.6+02:00",
          "2016-06-24T13:32:17.6+02:00",
          "2016-06-24T13:32:36.6+02:00",
          "2016-06-24T13:32:55.6+02:00",
          "2016-06-24T13:34:07.6+02:00",
          "2016-06-24T13:35:47.6+02:00",
          "2016-06-24T13:36:21.6+02:00",
          "2016-06-24T13:36:21.6+02:00",
          "2016-06-24T13:37:46.6+02:00",
          "2016-06-24T13:37:51.6+02:00",
          "2016-06-24T13:37:58.6+02:00",
          "2016-06-24T13:38:01.6+02:00",
          "2016-06-24T13:38:25.6+02:00",
          "2016-06-24T13:38:31.6+02:00",
          "2016-06-24T13:39:16.6+02:00"
        ],
        "coord": [
          "9.177093505859375 48.78161239624024 0",
          "9.176799774169922 48.78171920776367 323.5958251953125",
          "9.176501274108887 48.78173065185547 331.2081909179688",
          "9.176258087158203 48.78183746337891 331.1207885742188",
          "9.175926208496094 48.78181838989257 324.6643981933594",
          "9.175708770751953 48.78194046020509 321.2200012207031",
          "9.175803184509277 48.78211212158204 311.8965759277344",
          "9.175556182861328 48.78199768066406 310.9493408203125",
          "9.175331115722656 48.78189086914063 311.1001586914063",
          "9.175041198730469 48.7819709777832 324.1612243652344",
          "9.174888610839844 48.78233337402343 0",
          "9.173504829406738 48.78184509277344 0",
          "9.173592567443848 48.78169631958008 276.5511169433594",
          "9.173334121704102 48.78182601928711 302.9617309570313",
          "9.173469543457031 48.78166580200195 299.3790893554688",
          "9.173651695251465 48.78152847290039 297.11328125",
          "9.173415184020996 48.78163528442383 303.6077270507813",
          "9.173149108886719 48.78169250488281 303.6971435546875",
          "9.172877311706543 48.78165817260742 302.7697448730469",
          "9.172632217407227 48.78155136108399 301.9318542480469",
          "9.172379493713379 48.78146743774414 302.8963317871094",
          "9.172080993652344 48.78146362304688 302.9810180664063",
          "9.173160552978516 48.78066253662109 0",
          "9.174344062805176 48.78073883056641 0",
          "9.174344062805176 48.78073883056641 0",
          "9.174361228942871 48.78050994873047 319.2991638183594",
          "9.174471855163574 48.78068161010742 298.1505737304688",
          "9.174691200256348 48.78081130981445 298.1033325195313",
          "9.17497730255127 48.78083419799804 297.9363708496094",
          "9.175250053405762 48.78079986572266 296.5816345214844",
          "9.175486564636231 48.78070831298829 296.5164489746094",
          "9.175662040710449 48.78055572509766 299.550537109375",
          "9.175857543945313 48.78041076660157 302.7437744140625",
          "9.1761474609375 48.78041839599609 306.004150390625",
          "9.176433563232422 48.78045272827148 307.4765625",
          "9.176671028137207 48.78054809570313 307.7909240722656",
          "9.176970481872559 48.78059005737305 305.0448608398438",
          "9.17791748046875 48.78092575073243 0",
          "9.178512573242188 48.78139114379883 0",
          "9.178512573242188 48.78139114379883 0",
          "9.177582740783691 48.78134536743164 0",
          "9.177209854125977 48.78139114379883 0",
          "9.17780876159668 48.78175354003907 0",
          "9.17718505859375 48.78160858154297 0",
          "9.177002906799316 48.78194808959961 204.1160125732422",
          "9.176765441894531 48.78157806396484 331.1007995605469",
          "9.177928924560547 48.7817268371582 0"
        ],
        "ExtendedData": null
      }
    }
  }
}

